parentKey,key,value
GS03,S,Semanal
GS04,S,Semanal
GQ03,Q,Quincenal
GQ04,Q,Quincenal
G006,D,Diario
H001,M,Mensual
PR01,M,Mensual
GS01,S,Semanal
GQ01,Q,Quincenal
GS02,S,Semanal
GQ02,Q,Quincenal
GOAH,M,Mensual
PH01,M,Mensual
PH02,M,Mensual
PH03,M,Mensual
MH01,M,Mensual
MH09,M,Mensual
MH04,M,Mensual
MH07,M,Mensual
MH08,M,Mensual
MD26,M,Mensual
REFI,M,Mensual
MH11,M,Mensual
MH12,M,Mensual
MH13,M,Mensual
MH14,M,Mensual
MH03,M,Mensual
MH18,M,Mensual
MH19,M,Mensual
MCBO,M,Mensual
MH16,M,Mensual
MH17,M,Mensual
MBOE,M,Mensual
MH23,M,Mensual
MH23,M,Mensual
MH21,M,Mensual
MH20,M,Mensual